{
  "project_info": {
    "project_number": "149145940760",
    "firebase_url": "https://speeddial-97bf9.firebaseio.com",
    "project_id": "speeddial-97bf9",
    "storage_bucket": "speeddial-97bf9.appspot.com"
  },
  "client": [
    {
      "client_info": {
        "mobilesdk_app_id": "1:149145940760:android:7d4a7be76e885244",
        "android_client_info": {
          "package_name": "com.mobiblocks.JeannaGabellini"
        }
      },
      "oauth_client": [
        {
          "client_id": "149145940760-km10nfnntpvdslc9mlrbv1qurrt47q8g.apps.googleusercontent.com",
          "client_type": 1,
          "android_info": {
            "package_name": "com.mobiblocks.JeannaGabellini",
            "certificate_hash": "07657332de2c02ef13efead09307a3876a65d505"
          }
        },
        {
          "client_id": "149145940760-dku7s3d3phapcui1fg593ipgtg4cjbgs.apps.googleusercontent.com",
          "client_type": 1,
          "android_info": {
            "package_name": "com.mobiblocks.JeannaGabellini",
            "certificate_hash": "e81501433fc74ac07896cc2f7913e5fd424bc0f3"
          }
        },
        {
          "client_id": "149145940760-np2sklgqp6oo3vmkh31qf1a859un46vr.apps.googleusercontent.com",
          "client_type": 3
        }
      ],
      "api_key": [
        {
          "current_key": "AIzaSyDVbgfGwlWmvS7nocCL-qgq8xWGa2ACsAc"
        }
      ],
      "services": {
        "analytics_service": {
          "status": 1
        },
        "appinvite_service": {
          "status": 2,
          "other_platform_oauth_client": [
            {
              "client_id": "149145940760-np2sklgqp6oo3vmkh31qf1a859un46vr.apps.googleusercontent.com",
              "client_type": 3
            },
            {
              "client_id": "149145940760-1vk0nuih6feosgoi99dt3sv6ue3jaqgh.apps.googleusercontent.com",
              "client_type": 2,
              "ios_info": {
                "bundle_id": "com.mobiblocks.JeannaGabellini"
              }
            }
          ]
        },
        "ads_service": {
          "status": 2
        }
      }
    }
  ],
  "configuration_version": "1"
}
